{
  "id": "9209736a22501dd4ea16afee86d0968bead84100",
  "short_id": "9209736a",
  "created_at": "2019-05-31T18:17:30.000Z",
  "parent_ids": [
    "b9798c157ac5973e9dd2b7ad95267014034a219f",
    "bfed231152fa476aa4be6e221d65dc5225d19537"
  ],
  "title": "Merge commit with merge request, with CommitSHA memo"
}
