{
  "id": 22682,
  "iid": 99,
  "project_id": 1,
  "title": "Fancy feature",
  "description": "It's very fancy",
  "state": "merged",
  "target_branch": "release/10.4",
  "source_branch": "feature/fancy",
  "author": {
    "id": 42,
    "name": "John",
    "username": "john"
  },
  "merge_when_pipeline_succeeds": false,
  "merge_status": "can_be_merged",
  "sha": "f0af17449a83681de22db7ce16672f16f37131bec0022371d4ace5d1854301e0",
  "merge_commit_sha": "01656ecb677e1d751cc4c0fe71be78fa286f9daa7865636786072f6f54e5fa13",
  "web_url": "https://gitlab.com/example/foo/merge_requests/99"
}
